0#111#Tima#31#12#10
1#222#Alex#1#0#1
2#222#Max#4#1#0
4#111#Ешьф#0#0#0
5#222#Lena#27#11#15
6#111#T#1#0#0
7#222#Y#1#0#0
8#111#Tim#1#0#1
9#222#Bim#2#1#0
10#111#Vam#1#1#0
11#222#Bam#0#0#1
12#111#Almaz#2#1#0
13#222#Rubin#1#0#1
14#111#Dim#1#0#0
15#222#NeDim#1#0#0
